<?xml version="1.0" encoding="utf-8"?>
<!-- Generator: Adobe Illustrator 16.0.4, SVG Export Plug-In . SVG Version: 6.00 Build 0)  -->
<!DOCTYPE svg PUBLIC "-//W3C//DTD SVG 1.1//EN" "http://www.w3.org/Graphics/SVG/1.1/DTD/svg11.dtd">
<svg version="1.1" id="Layer_1" xmlns="http://www.w3.org/2000/svg" xmlns:xlink="http://www.w3.org/1999/xlink" x="0px" y="0px"
	 width="100.977px" height="24.486px" viewBox="0 0 100.977 24.486" enable-background="new 0 0 100.977 24.486"
	 xml:space="preserve">
<path fill="#1998D3" d="M10.016,0C4.493,0,0,4.494,0,10.017c0,0.729,0.086,1.476,0.262,2.248l0.129,0.5
	c0.663,2.328,8.228,10.262,9.084,11.154l0.541,0.564l0.541-0.564c0.86-0.896,8.424-8.826,9.092-11.176l0.129-0.503
	c0.174-0.747,0.26-1.497,0.26-2.227C20.034,4.494,15.54,0,10.016,0z M18.32,11.89l-0.115,0.464
	c-0.399,1.399-5.021,6.622-8.188,9.965c-3.165-3.343-7.785-8.562-8.179-9.946l-0.12-0.461c-0.146-0.641-0.219-1.274-0.219-1.895
	c0-4.696,3.818-8.521,8.518-8.521s8.521,3.822,8.521,8.521C18.536,10.635,18.462,11.272,18.32,11.89z M10.016,5.897
	c-1.704,0-3.088,1.384-3.088,3.09c0,1.707,1.384,3.09,3.088,3.09c1.707,0,3.09-1.383,3.09-3.09
	C13.105,7.281,11.723,5.897,10.016,5.897z"/>
<g>
	<path fill="#1998D3" d="M34.601,4.036c0-0.368,0.161-0.528,0.483-0.528h0.161c0.318,0,0.506,0.16,0.506,0.528v13.36h7.289
		c0.345,0,0.526,0.161,0.526,0.479v0.096c0,0.299-0.185,0.479-0.526,0.479h-8.439V4.036L34.601,4.036z"/>
	<path fill="#1998D3" d="M45.079,13.004c0-3.239,2.3-5.653,5.562-5.653c3.219,0,5.542,2.438,5.542,5.699
		c0,3.223-2.323,5.637-5.542,5.637C47.379,18.684,45.079,16.247,45.079,13.004z M55.082,13.05c0-2.667-1.862-4.733-4.438-4.733
		s-4.461,2.021-4.461,4.688c0,2.668,1.886,4.717,4.461,4.717C53.196,17.719,55.082,15.719,55.082,13.05z"/>
	<path fill="#1998D3" d="M58.519,12.981c0-3.22,2.3-5.634,5.542-5.634c1.816,0,3.035,0.667,3.771,1.399
		c0.575,0.575,0.828,1.222,0.828,1.541c0,0.506-0.667,0.601-0.716,0.552c-0.506-1.311-1.633-2.526-3.887-2.526
		c-2.599,0-4.438,2.021-4.438,4.668c0,2.688,1.813,4.714,4.438,4.714c2.254,0,3.381-1.195,3.887-2.507
		c0.049-0.068,0.716,0.046,0.716,0.552c0,0.322-0.253,0.943-0.854,1.564c-0.732,0.732-1.954,1.379-3.748,1.379
		C60.818,18.684,58.519,16.247,58.519,12.981z"/>
	<path fill="#1998D3" d="M70.947,15.694c0-2.46,2.395-3.495,7.864-3.563h0.23v-0.553c0-2.046-1.242-3.219-3.334-3.219
		c-1.889,0-3.104,0.896-3.702,2.069c-0.023,0-0.621-0.068-0.621-0.646c0-0.229,0.229-0.688,0.621-1.058
		c0.688-0.69,1.908-1.38,3.771-1.38c2.717,0,4.35,1.587,4.35,4.208v6.896h-1.081v-2.161c-0.713,1.402-2.322,2.394-4.323,2.394
		C72.396,18.684,70.947,17.512,70.947,15.694z M79.042,14.085v-1.081h-0.299c-4.737,0.096-6.669,0.854-6.669,2.69
		c0,1.288,1.058,2.07,2.733,2.07C77.18,17.765,79.042,16.154,79.042,14.085z"/>
	<path fill="#1998D3" d="M84.062,15.304V8.566h-1.794V7.577h1.794V5.462c0-0.414,0.207-0.552,0.482-0.552h0.139
		c0.275,0,0.459,0.138,0.459,0.552v2.115h3.61v0.989h-3.61v6.622c0,1.794,0.553,2.553,1.817,2.553c0.805,0,1.399-0.391,1.771-0.942
		c0.046-0.046,0.368,0.114,0.368,0.555c0,0.184-0.093,0.437-0.368,0.688c-0.345,0.368-0.94,0.646-1.813,0.646
		C84.982,18.684,84.062,17.604,84.062,15.304z"/>
	<path fill="#1998D3" d="M90.56,13.05c0-3.239,2.3-5.699,5.427-5.699c2.99,0,4.99,2.139,4.99,5.312v0.115
		c0,0.322-0.138,0.391-0.479,0.391h-8.854c0.046,2.69,1.862,4.53,4.484,4.53c2.273,0,3.334-1.104,3.886-2.185
		c0.069-0.049,0.646,0.112,0.646,0.644c0,0.23-0.206,0.69-0.689,1.173c-0.667,0.667-2,1.356-3.84,1.356
		C92.79,18.684,90.56,16.315,90.56,13.05z M91.687,12.223h8.144c-0.095-2.322-1.609-3.909-3.844-3.909
		C93.733,8.313,92.031,9.946,91.687,12.223z"/>
</g>
</svg>
